module com.grpc.calculator

go 1.16

require (
	github.com/golang/protobuf v1.4.3
	golang.org/x/net v0.0.0-20210224082022-3d97a244fca7 // indirect
	golang.org/x/sys v0.0.0-20210225134936-a50acf3fe073 // indirect
	golang.org/x/text v0.3.5 // indirect
	google.golang.org/genproto v0.0.0-20210224155714-063164c882e6 // indirect
	google.golang.org/grpc v1.36.0
	google.golang.org/protobuf v1.25.0

)
